<?xml version="1.0" encoding="utf-8"?>
<!-- Generator: Adobe Illustrator 16.0.0, SVG Export Plug-In . SVG Version: 6.00 Build 0)  -->
<!DOCTYPE svg PUBLIC "-//W3C//DTD SVG 1.1//EN" "http://www.w3.org/Graphics/SVG/1.1/DTD/svg11.dtd">
<svg version="1.1" id="Layer_1" xmlns="http://www.w3.org/2000/svg" xmlns:xlink="http://www.w3.org/1999/xlink" x="0px" y="0px"
	 width="280px" height="49px" viewBox="-1 0 280 49" enable-background="new -1 0 280 49" xml:space="preserve">
<title>Fill 107 Copy</title>
<desc>Created with Sketch.</desc>
<g id="Welcome">
	<g id="Cerstve-utrzeno_mobile" transform="translate(-48.000000, -1160.000000)">
		<path id="Fill-107-Copy" fill="#6c757d" d="M325.263,1187.525c-0.021,0.074-0.042,0.109-0.063,0.148V1187
			C325.221,1187.168,325.246,1187.333,325.263,1187.525L325.263,1187.525z M216.534,1208.043l0.079-0.042
			c-0.067,0.063-0.143,0.126-0.267,0.171c-0.669,0.045-0.894-0.021-0.985-0.09C215.678,1208.069,216.047,1208.062,216.534,1208.043
			L216.534,1208.043z M326.866,1178.291l-0.525-0.332c0.019-0.349,0.061-1.036,0.27-0.908c-0.359-1.294-0.228,0.221-0.567-0.53
			c0.476-1.676-0.226-4.623,0.614-5.002c-0.4-0.6-0.311,1.603-0.589-0.184c0.902-0.51-0.151-2.069,0.258-3.598
			c0.469,0.47,0.218,1.918,0.635,0.386c-0.786-0.972,0.175-2.866,0.022-4.385c-0.325-0.027-0.382-0.952-0.392-2.221
			c-1.405,0.007-3.44-0.017-4.614,0.062c0.177-0.165-5.226-0.27-7.812-0.447l0.073-0.081c-0.499,0.494-3.165,0.399-5.107,0.504
			c0.076-0.296,0.426-0.414,1.479-0.543h-1.828c-0.432,0.161-1.001,0.241-2.184,0.298l0.46-0.369
			c-2.427,0.023-4.892,0.436-8.02,0.188c-0.12,0.234,1.032,0.59,0.774,0.866h-1.654c0.056-0.117,0.235-0.218,0.684-0.258
			c-0.285,0.023-1.012,0.154-1.582,0.074l1.319-0.313c-1.424-0.137-0.744,0.261-1.884,0.235c0.024-0.27-0.839-0.191-0.679-0.402
			c0.29-0.023,0.991,0.11,1.43,0.007c-1.283-0.047-2.831-0.205-3.346-0.406c0.109,0.151,0,0.358-0.94,0.392
			c-2.433,0.02-0.831-0.318-2.253-0.456c-0.589,0.185-2.134-0.007-2.174,0.389c-0.717-0.003-0.843-0.185-1.12-0.292
			c-1.255,0.174-5.87,0.05-4.458,0.469l0.327,0.027c-0.068,0.006-0.133,0.013-0.206,0.02c-4.123,0.393-8.562-0.228-12.654-0.057
			l0.009-0.131c-2.441,0.151-5.435,0.091-7.175,0.373c-0.721,0-1.707-0.242-1.396-0.4c-1.861,0.101-2.072,0.248-4.77,0.03
			c1.876-0.231-0.648-0.205,1.924-0.171c-2.425-0.111-2.975-0.325-5.576,0.037c0.885-0.338-1.829-0.426-2.982-0.325l1.7,0.245
			c-1.296,0.047-2.429,0.017-3.578-0.01l0.625-0.449c-4.962-0.54-8.947,0.925-12.728,0.017c-1.311,0.312,2.696,0.218,1.523,0.586
			c-2.282-0.061-4.66-0.701-5.376-0.704c-3.124-0.248-2.917,0.654-6.191,0.483c0.422,0.161,0.816,0.583-1.63,0.734
			c-2.283-0.061-2.806-0.667-1.363-0.795c0.547-0.013,0.809,0.037,0.788,0.091c0.739-0.061,1.706-0.127,0.798-0.299l-0.294,0.161
			c-1.13-0.164-4.277-0.147-3.537-0.409c-1.729,0.151-0.74,0.262,0.541,0.342c-2.927-0.229-4.577-0.003-7.591-0.161
			c0.476,0.087,0.92,0.275,0.441,0.275c-4.42-0.198-1.944,0.302-4.943,0.372c-1.702-0.245,0.609-0.58-2.404-0.375
			c-1.845-0.167-0.391-0.422,0.34-0.553c-2.748,0.305-5.131-0.201-6.703-0.258l1.446-0.131c-0.867,0.077-1.574,0.077-2.297,0.074
			l0.83,0.322c-0.854-0.057-1.568-0.057-1.555-0.191c-0.876,0.208,0.671,0.53-1.069,0.814c-1.133-0.161-3.449,0.174-3.845-0.248
			c3.565,0.141-0.39-0.426,2.625-0.493c-0.58,0.05-1.291,0.047-2.142-0.01c-0.13-0.047,0.12-0.083,0.353-0.11
			c-3.409-0.379-1.57,0.479-5.102,0.469c0.448-0.238-0.823-0.453-1.4-0.402c1.429,0.007,0.685,0.399-0.623,0.58
			c-2.263-0.185-2.463,0.137-3.649,0.117l1.355,0.087c-0.46,0.238-1.592,0.208-3.174,0.282c-0.132-0.184,1.437-0.127,0.873-0.208
			c-1.753,0.416-3.962-0.436-6.409-0.154c-1.13-0.161-0.106-0.446-1.101-0.557c-2.743,0.312-2.97-0.325-5.851-0.07
			c0.83,0.318,0.975,0.241-1.054,0.553l4.738-0.225l-3.039,0.466c1.426,0.003,3.014-0.201,3.87-0.147
			c-1.445,0.261-1.299,0.181-0.615,0.446c-1.956-0.479-3.878,0.283-6.14-0.043l0.069-0.792c-3.396-0.355-6.036,0.406-10.453,0.205
			l1.421,0.141c-0.59,0.315-2.727,0.043-4.155,0.171c0.134-0.265-0.759-0.362-1.371-0.526c0.073,0.198-3.229-0.017-3.632,0.51
			l-1.97-0.349c-3.563-0.141-4.067,0.754-7.494,0.667c1.032-0.288-0.524-0.476,1.771-0.684c-1.143-0.003-2.171-0.05-2.189,0.134
			c-0.67-0.168-3.172,0.355-4.226,0.104c-0.482,0.117-0.642,0.392-1.923,0.372c-0.141-0.054,0.004-0.131,0.004-0.131
			c-0.004,0.131-2.013,0.178-0.891,0.473c-3.521-0.829-9.846,0.057-12.916-0.65c-2.498,0.087-5.503,0.174-7.769,0.191
			c0.146-0.077,0.007-0.13,0.433-0.104c-3.126-0.245-1.917,0.762-5.478,0.486c-1.818-0.429,1.888-0.231,0.757-0.392
			c-0.494-0.872-4.296,0.117-6.686-0.393l0.577-0.05c-1.828-0.295-4.465,0.332-7.456,0.268c0,0,0.151-0.077,0.022-0.131
			c-2.047,0.446-5.916,0.59-8.792,0.714c0.894-0.339,1.307-0.182,0.761-0.526c-1.29,0.047,0.378,0.557-2.196,0.653
			c-0.835-0.188-2.696-0.353-2.941-0.721l2.429-0.02c-1.242-0.479-3.144,0.017-4.421-0.067l0.165-0.208
			c-3.725,0.067-3.771,0.593-7.773,0.557l0.417,0.157c-2.188,0.523-1.832-0.295-4.016,0.098l-0.657-0.533
			c-1.441,0.131-5.047,0.513-7.636,0.614c1.465-0.393,4.492-0.594,6.362-0.829c-1.428-0.003-4.858,0.041-5.599,0.302
			c0.573-0.05,1.299-0.181,1.866-0.097c-1.753,0.416-4.059,0.621-6.903,0.61c0.103-0.675-2.219-0.578-7.207-0.655
			c-0.052,1.674-0.164,3.602-0.516,3.93c0.486,3.926-0.211,7.792-0.134,12.367c1.028-1.623,0.029,1.337,1.079,1.056
			c0.069,1.049,0.052,1.455-0.013,1.559l0.044-0.218c-0.022,0.094-0.035,0.151-0.048,0.231l0,0l-0.624,3.226
			c-0.309,0.764-0.236-1.013-0.469-0.916c-0.082,2.334-0.447,0.979-0.726,2.524c0.378-0.318,0.536,0.812,0.39,2.14l0.49-1.871
			c0.56,3.259-0.885,2.819-0.331,6.104l-0.332-1.039c0.193,1.687-0.005,6.223,0.838,7.879c-0.121,0.299-0.408,0.69-0.485-0.05
			c-0.044,1.455,0.061,3.029,0.184,4.597c0.069,0.776,0.134,1.56,0.193,2.319c0.047,1.22,0.095,2.406,0.138,3.533
			c2.146-0.031,4.748-0.011,5.516,0.104l-0.386,0.201c0.962-0.062,1.677-0.379,2.886-0.178c-0.064,0.084-0.388,0.196,0.059,0.211
			c0.508-0.066,2.558-0.35,3.839-0.234l-1.092,0.225c5.044,0.266,7.74-0.547,11.966-0.684c-0.008,0.59,3.96,0.78,5.941,0.878
			l-0.069,0.08c5.869,0.077,9.975-0.485,15.413-0.718c3.375,0.641,11.437,0.269,16.859,0.627c-0.826-0.107,0.137-0.463,1.101-0.521
			c1.272,0.121,3.521-0.407,3.319,0.132l-0.456-0.011c0.964,0.529,3.577,0.39,5.619,0.406l0.34-0.711
			c5.343,1.032,13.999-0.376,16.918,0.546c1.286-0.182,2.889-0.178,4.167-0.352l-0.068,0.377c3.573,0.099,5.356,0.146,9.772,0.059
			l-0.903,0.27c2.493,0.022,3.146-1.098,5.444-1.117l0.697,0.565c4.342-0.006,8.74,0.49,13.035-0.022
			c-0.067,0.081-0.197,0.244-0.898,0.269c2.042,0.017,7.911,0.382,7.167-0.392c0.051,0.502,4.485,0.047,6.832-0.176l-0.365,0.373
			c1.982-0.478,2.047-0.606,4.811-0.737c0.659,0.044,0.576,0.295-0.296,0.2c2.189,0.199,1.703-0.353,4.355-0.156l-0.989,0.236
			c2.25,0.031,2.067-0.097,3.307-0.375c1.415-0.15,4.266,0.095,4.595,0.434c0.301-0.205,1.535-0.479,2.858-0.383
			c0.182,0.128-0.301,0.205-0.545,0.244c3.758,0.256,5.592-0.437,8.175-0.066c0.056,0.124,0.224,0.186,0.437,0.223
			c-2.987-0.012-5.391-0.031-5.167-0.059c0,0.346,2.413,0.406,0.495,0.882c1.933-0.258,5.245-0.823,7.596-0.66
			c0.116,0.033,0.223,0.063,0.315,0.117l-0.243,0.04c0.541,0.033,1.024,0.004,1.481-0.057c0.753,0.057,1.229,0.098,1.946,0.104
			c0.28,0.285,2.77,0.154,3.969,0.168c-0.099-0.375,1.478-0.318,0-0.627c0.188,0.023-0.228,0.044-1.027,0.061
			c-0.18,0.011-0.392,0.018-0.509,0.041l0.077-0.033c-0.784,0.007-1.818,0.013-2.985,0.023c0.95-0.191,1.941-0.354,3.273-0.146
			c0.616-0.241,1.293-0.489,1.678-0.606c1.647,0.526,4.816,0.812,5.26,1.133c3.672-0.211,8.65-0.141,10.96-0.848
			c1.043-0.091,1.2,0.204,1.59,0.314c-0.601,0.074-1.317,0.063-1.646,0.164c2.091-0.185,6.188-0.073,6.688-0.566
			c2.627,0.223-1.482,0.456,2.134,0.373l-0.488,0.15c7.115,0.791,11.564-1.262,19.449-0.245c-0.547-0.063-0.821-0.091-0.934-0.175
			c8.991,0.447,18.527-0.422,27.403,0.289c2.518,0.145,2.792-0.174,4.326-0.412l0.549,0.404l2.633-0.466
			c3.727-0.346,6.461,0.992,11.184,0.347l-0.613-0.271c1.7,0.05,5.375-0.165,5.094,0.15c0.174-0.051,0.557-0.281,1.218-0.142
			l0.053,0.212l4.165-0.363c3.233,0.154-0.502,0.843,4.212,0.883c1.753-0.08,4.989-0.617,4.331-0.758
			c-0.705-0.011-1.808-0.135-1.855-0.343l1.599-0.112c0.021-0.037,0.046-0.078,0.071-0.119h0.25v-0.392
			c0.091-0.161,0.116-0.317,0-0.47v-13.91l0.133,0.147l-0.133-0.442v-1.874c0.102,0.063,0.193,0.208,0.231,0.576
			c0.357-1.385-0.252-1.227,0.143-2.417c0.06-0.131,0.095-0.074,0.127,0.047l-0.218-1.354c0.149,0.27,0.509-0.225,0.404,0.61
			c0.413-2.434-0.536-3.926,0.004-4.841l0.045,0.204c-0.182-2.524-0.387-1.458-0.735-1.817v-1.576L326.866,1178.291z"/>
	</g>
</g>
</svg>
